Age 35 & older:														
Engine Size (CC's)	P1	P2	P3		Limits of Liability					Limits of Liability				
	2015 & 2014	2013 & 2012	2011 & older		15/30/10	25/50/10	50/100/25	100/300/50	250/500/100	15/30/10	25/50/10	50/100/25	100/300/50	250/500/100
551-750	503	346	282	8	270	288	329	381	470	362	380	421	473	562
751-950	559	385	313	8	337	359	413	482	599	438	460	514	583	700
951-1210	1041	711	579	8	348	371	428	500	623	449	472	529	601	724
1211-1400	1083	739	602	8	372	398	462	543	680	473	499	563	644	781
1401 & Over	1126	769	625	8	380	408	473	556	698	481	509	574	657	799
														
Age 30-34:														
Engine Size (CC's)	P1	P2	P3		Limits of Liability					Limits of Liability				
	2015 & 2014	2013 & 2012	2011 & older		15/30/10	25/50/10	50/100/25	100/300/50	250/500/100	15/30/10	25/50/10	50/100/25	100/300/50	250/500/100
551-750	593	409	333	8	317	340	391	457	570	411	434	485	551	664
751-950	661	457	371	8	403	431	500	589	738	508	536	605	694	843
951-1210	1228	840	683	8	417	447	518	612	770	522	552	623	717	875
1211-1400	1278	874	711	8	447	481	562	666	843	552	586	667	771	948
1401 & Over	1328	910	739	8	457	492	576	684	866	562	597	681	789	971
														
Age 26-29:														
Engine Size (CC's)	P1	P2	P3		Limits of Liability					Limits of Liability				
	2015 & 2014	2013 & 2012	2011 & older		15/30/10	25/50/10	50/100/25	100/300/50	250/500/100	15/30/10	25/50/10	50/100/25	100/300/50	250/500/100
551-750	646	445	362	8	349	372	425	495	611	461	484	537	607	723
751-950	720	498	403	8	441	470	542	635	791	565	594	666	759	915
951-1210	1336	914	742	8	456	487	562	661	825	580	611	686	785	949
1211-1400	1390	951	774	8	488	522	608	716	901	612	646	732	840	1025
1401 & Over	1445	989	804	8	498	534	621	735	926	622	658	745	859	1050
														
Age 21-25:														
Engine Size (CC's)	P1	P2	P3		Limits of Liability					Limits of Liability				
	2015 & 2014	2013 & 2012	2011 & older		15/30/10	25/50/10	50/100/25	100/300/50	250/500/100	15/30/10	25/50/10	50/100/25	100/300/50	250/500/100
551-750	1128	775	629	8	701	755	901	1086	1395	819	873	"1,019"	1204	1513
751-950	1257	866	702	8	956	1028	"1,234"	1497	1931	1087	1159	"1,365"	1628	2062
951-1210	2340	1598	1298	8	999	1076	"1,294"	1571	2029	1130	1207	"1,425"	1702	2160
1211-1400	2436	1664	1352	8	1089	1173	"1,416"	1725	2232	1220	1304	"1,547"	1856	2363
1401 & Over	2532	1730	1405	8	1118	1207	"1,455"	1774	2300	1249	1338	"1,586"	1905	2431
														
Age 20 & under:														
Engine Size (CC's)	P1	P2	P3		Limits of Liability					Limits of Liability				
	2015 & 2014	2013 & 2012	2011 & older		15/30/10	25/50/10	50/100/25	100/300/50	250/500/100	15/30/10	25/50/10	50/100/25	100/300/50	250/500/100
551-750	2396	1650	1335	8	972	1051	"1,270"	1549	2010	1090	1169	"1,388"	1667	2128
751-950	2678	1850	1494	8	1357	1463	"1,775"	2176	2831	1488	1594	"1,906"	2307	2962
951-1210	4963	3401	2755	8	1423	1535	"1,865"	2288	2980	1554	1666	"1,996"	2419	3111
1211-1400	5169	3543	2869	8	1557	1682	"2,048"	2518	3286	1688	1813	"2,179"	2649	3417
1401 & Over	5374	3684	2984	8	1601	1730	"2,110"	2594	3388	1732	1861	"2,241"	2725	3519
														
														
														
														
